^C:\USERS\MATISS\DESKTOP\KURSA_DARBS\GLSDK_0_5_2\GLMESH\DEBUG\CPUDATAWRITER.OBJ|C:\USERS\MATISS\DESKTOP\KURSA_DARBS\GLSDK_0_5_2\GLMESH\DEBUG\DRAW.OBJ|C:\USERS\MATISS\DESKTOP\KURSA_DARBS\GLSDK_0_5_2\GLMESH\DEBUG\GENHELPER.OBJ|C:\USERS\MATISS\DESKTOP\KURSA_DARBS\GLSDK_0_5_2\GLMESH\DEBUG\GENMESHMISC.OBJ|C:\USERS\MATISS\DESKTOP\KURSA_DARBS\GLSDK_0_5_2\GLMESH\DEBUG\GENPLATONIC.OBJ|C:\USERS\MATISS\DESKTOP\KURSA_DARBS\GLSDK_0_5_2\GLMESH\DEBUG\GENQUADRICS.OBJ|C:\USERS\MATISS\DESKTOP\KURSA_DARBS\GLSDK_0_5_2\GLMESH\DEBUG\MESH.OBJ|C:\USERS\MATISS\DESKTOP\KURSA_DARBS\GLSDK_0_5_2\GLMESH\DEBUG\STREAMBUFFER.OBJ|C:\USERS\MATISS\DESKTOP\KURSA_DARBS\GLSDK_0_5_2\GLMESH\DEBUG\VERTEXFORMAT.OBJ|C:\USERS\MATISS\DESKTOP\KURSA_DARBS\GLSDK_0_5_2\GLMESH\DEBUG\VERTEXWRITER.OBJ
/OUT:"GLMESH\LIB\GLMESHD.LIB" /NOLOGO GLMESH\DEBUG\CPUDATAWRITER.OBJGLMESH\DEBUG\DRAW.OBJGLMESH\DEBUG\GENHELPER.OBJGLMESH\DEBUG\GENMESHMISC.OBJGLMESH\DEBUG\GENPLATONIC.OBJGLMESH\DEBUG\GENQUADRICS.OBJGLMESH\DEBUG\MESH.OBJGLMESH\DEBUG\STREAMBUFFER.OBJGLMESH\DEBUG\VERTEXFORMAT.OBJGLMESH\DEBUG\VERTEXWRITER.OBJ
^C:\USERS\MATISS\DESKTOP\KURSA_DARBS\GLSDK\GLMESH\DEBUG\CPUDATAWRITER.OBJ|C:\USERS\MATISS\DESKTOP\KURSA_DARBS\GLSDK\GLMESH\DEBUG\DRAW.OBJ|C:\USERS\MATISS\DESKTOP\KURSA_DARBS\GLSDK\GLMESH\DEBUG\GENHELPER.OBJ|C:\USERS\MATISS\DESKTOP\KURSA_DARBS\GLSDK\GLMESH\DEBUG\GENMESHMISC.OBJ|C:\USERS\MATISS\DESKTOP\KURSA_DARBS\GLSDK\GLMESH\DEBUG\GENPLATONIC.OBJ|C:\USERS\MATISS\DESKTOP\KURSA_DARBS\GLSDK\GLMESH\DEBUG\GENQUADRICS.OBJ|C:\USERS\MATISS\DESKTOP\KURSA_DARBS\GLSDK\GLMESH\DEBUG\MESH.OBJ|C:\USERS\MATISS\DESKTOP\KURSA_DARBS\GLSDK\GLMESH\DEBUG\STREAMBUFFER.OBJ|C:\USERS\MATISS\DESKTOP\KURSA_DARBS\GLSDK\GLMESH\DEBUG\VERTEXFORMAT.OBJ|C:\USERS\MATISS\DESKTOP\KURSA_DARBS\GLSDK\GLMESH\DEBUG\VERTEXWRITER.OBJ
/OUT:"GLMESH\LIB\GLMESHD.LIB" /NOLOGO GLMESH\DEBUG\CPUDATAWRITER.OBJGLMESH\DEBUG\DRAW.OBJGLMESH\DEBUG\GENHELPER.OBJGLMESH\DEBUG\GENMESHMISC.OBJGLMESH\DEBUG\GENPLATONIC.OBJGLMESH\DEBUG\GENQUADRICS.OBJGLMESH\DEBUG\MESH.OBJGLMESH\DEBUG\STREAMBUFFER.OBJGLMESH\DEBUG\VERTEXFORMAT.OBJGLMESH\DEBUG\VERTEXWRITER.OBJ
