^C:\USERS\MATISS\DESKTOP\KURSA_DARBS\GLSDK_0_5_2\GLUTIL\SOURCE\DEBUG.CPP|C:\USERS\MATISS\DESKTOP\KURSA_DARBS\GLSDK_0_5_2\GLUTIL\SOURCE\FONT.CPP|C:\USERS\MATISS\DESKTOP\KURSA_DARBS\GLSDK_0_5_2\GLUTIL\SOURCE\FTDATA.CPP|C:\USERS\MATISS\DESKTOP\KURSA_DARBS\GLSDK_0_5_2\GLUTIL\SOURCE\MATRIXSTACK.CPP|C:\USERS\MATISS\DESKTOP\KURSA_DARBS\GLSDK_0_5_2\GLUTIL\SOURCE\MOUSEPOLES.CPP|C:\USERS\MATISS\DESKTOP\KURSA_DARBS\GLSDK_0_5_2\GLUTIL\SOURCE\SHADER.CPP|C:\USERS\MATISS\DESKTOP\KURSA_DARBS\GLSDK_0_5_2\GLUTIL\SOURCE\WINDOWPOS.CPP
C:\USERS\MATISS\DESKTOP\KURSA_DARBS\GLSDK_0_5_2\GLUTIL\DEBUG\VC120.PDB
C:\USERS\MATISS\DESKTOP\KURSA_DARBS\GLSDK_0_5_2\GLUTIL\DEBUG\VC120.IDB
C:\USERS\MATISS\DESKTOP\KURSA_DARBS\GLSDK_0_5_2\GLUTIL\DEBUG\DEBUG.OBJ
C:\USERS\MATISS\DESKTOP\KURSA_DARBS\GLSDK_0_5_2\GLUTIL\DEBUG\FONT.OBJ
C:\USERS\MATISS\DESKTOP\KURSA_DARBS\GLSDK_0_5_2\GLUTIL\DEBUG\MATRIXSTACK.OBJ
C:\USERS\MATISS\DESKTOP\KURSA_DARBS\GLSDK_0_5_2\GLUTIL\DEBUG\MOUSEPOLES.OBJ
C:\USERS\MATISS\DESKTOP\KURSA_DARBS\GLSDK_0_5_2\GLUTIL\DEBUG\SHADER.OBJ
C:\USERS\MATISS\DESKTOP\KURSA_DARBS\GLSDK_0_5_2\GLUTIL\DEBUG\WINDOWPOS.OBJ
C:\USERS\MATISS\DESKTOP\KURSA_DARBS\GLSDK_0_5_2\GLUTIL\DEBUG\FTDATA.OBJ
^C:\USERS\MATISS\DESKTOP\KURSA_DARBS\GLSDK_0_5_2\GLUTIL\SOURCE\DEBUG.CPP
C:\USERS\MATISS\DESKTOP\KURSA_DARBS\GLSDK_0_5_2\GLUTIL\DEBUG\VC120.PDB
^C:\USERS\MATISS\DESKTOP\KURSA_DARBS\GLSDK_0_5_2\GLUTIL\SOURCE\FONT.CPP
C:\USERS\MATISS\DESKTOP\KURSA_DARBS\GLSDK_0_5_2\GLUTIL\DEBUG\VC120.PDB
^C:\USERS\MATISS\DESKTOP\KURSA_DARBS\GLSDK_0_5_2\GLUTIL\SOURCE\MATRIXSTACK.CPP
C:\USERS\MATISS\DESKTOP\KURSA_DARBS\GLSDK_0_5_2\GLUTIL\DEBUG\VC120.PDB
^C:\USERS\MATISS\DESKTOP\KURSA_DARBS\GLSDK_0_5_2\GLUTIL\SOURCE\MOUSEPOLES.CPP
C:\USERS\MATISS\DESKTOP\KURSA_DARBS\GLSDK_0_5_2\GLUTIL\DEBUG\VC120.PDB
^C:\USERS\MATISS\DESKTOP\KURSA_DARBS\GLSDK_0_5_2\GLUTIL\SOURCE\SHADER.CPP
C:\USERS\MATISS\DESKTOP\KURSA_DARBS\GLSDK_0_5_2\GLUTIL\DEBUG\VC120.PDB
^C:\USERS\MATISS\DESKTOP\KURSA_DARBS\GLSDK_0_5_2\GLUTIL\SOURCE\WINDOWPOS.CPP
C:\USERS\MATISS\DESKTOP\KURSA_DARBS\GLSDK_0_5_2\GLUTIL\DEBUG\VC120.PDB
^C:\USERS\MATISS\DESKTOP\KURSA_DARBS\GLSDK_0_5_2\GLUTIL\SOURCE\FTDATA.CPP
C:\USERS\MATISS\DESKTOP\KURSA_DARBS\GLSDK_0_5_2\GLUTIL\DEBUG\VC120.PDB
^C:\USERS\MATISS\DESKTOP\KURSA_DARBS\GLSDK\GLUTIL\SOURCE\DEBUG.CPP|C:\USERS\MATISS\DESKTOP\KURSA_DARBS\GLSDK\GLUTIL\SOURCE\FONT.CPP|C:\USERS\MATISS\DESKTOP\KURSA_DARBS\GLSDK\GLUTIL\SOURCE\FTDATA.CPP|C:\USERS\MATISS\DESKTOP\KURSA_DARBS\GLSDK\GLUTIL\SOURCE\MATRIXSTACK.CPP|C:\USERS\MATISS\DESKTOP\KURSA_DARBS\GLSDK\GLUTIL\SOURCE\MOUSEPOLES.CPP|C:\USERS\MATISS\DESKTOP\KURSA_DARBS\GLSDK\GLUTIL\SOURCE\SHADER.CPP|C:\USERS\MATISS\DESKTOP\KURSA_DARBS\GLSDK\GLUTIL\SOURCE\WINDOWPOS.CPP
C:\USERS\MATISS\DESKTOP\KURSA_DARBS\GLSDK\GLUTIL\DEBUG\VC120.PDB
C:\USERS\MATISS\DESKTOP\KURSA_DARBS\GLSDK\GLUTIL\DEBUG\VC120.IDB
C:\USERS\MATISS\DESKTOP\KURSA_DARBS\GLSDK\GLUTIL\DEBUG\DEBUG.OBJ
C:\USERS\MATISS\DESKTOP\KURSA_DARBS\GLSDK\GLUTIL\DEBUG\FONT.OBJ
C:\USERS\MATISS\DESKTOP\KURSA_DARBS\GLSDK\GLUTIL\DEBUG\MATRIXSTACK.OBJ
C:\USERS\MATISS\DESKTOP\KURSA_DARBS\GLSDK\GLUTIL\DEBUG\MOUSEPOLES.OBJ
C:\USERS\MATISS\DESKTOP\KURSA_DARBS\GLSDK\GLUTIL\DEBUG\SHADER.OBJ
C:\USERS\MATISS\DESKTOP\KURSA_DARBS\GLSDK\GLUTIL\DEBUG\WINDOWPOS.OBJ
C:\USERS\MATISS\DESKTOP\KURSA_DARBS\GLSDK\GLUTIL\DEBUG\FTDATA.OBJ
^C:\USERS\MATISS\DESKTOP\KURSA_DARBS\GLSDK\GLUTIL\SOURCE\DEBUG.CPP
C:\USERS\MATISS\DESKTOP\KURSA_DARBS\GLSDK\GLUTIL\DEBUG\VC120.PDB
^C:\USERS\MATISS\DESKTOP\KURSA_DARBS\GLSDK\GLUTIL\SOURCE\FONT.CPP
C:\USERS\MATISS\DESKTOP\KURSA_DARBS\GLSDK\GLUTIL\DEBUG\VC120.PDB
^C:\USERS\MATISS\DESKTOP\KURSA_DARBS\GLSDK\GLUTIL\SOURCE\MATRIXSTACK.CPP
C:\USERS\MATISS\DESKTOP\KURSA_DARBS\GLSDK\GLUTIL\DEBUG\VC120.PDB
^C:\USERS\MATISS\DESKTOP\KURSA_DARBS\GLSDK\GLUTIL\SOURCE\MOUSEPOLES.CPP
C:\USERS\MATISS\DESKTOP\KURSA_DARBS\GLSDK\GLUTIL\DEBUG\VC120.PDB
^C:\USERS\MATISS\DESKTOP\KURSA_DARBS\GLSDK\GLUTIL\SOURCE\SHADER.CPP
C:\USERS\MATISS\DESKTOP\KURSA_DARBS\GLSDK\GLUTIL\DEBUG\VC120.PDB
^C:\USERS\MATISS\DESKTOP\KURSA_DARBS\GLSDK\GLUTIL\SOURCE\WINDOWPOS.CPP
C:\USERS\MATISS\DESKTOP\KURSA_DARBS\GLSDK\GLUTIL\DEBUG\VC120.PDB
^C:\USERS\MATISS\DESKTOP\KURSA_DARBS\GLSDK\GLUTIL\SOURCE\FTDATA.CPP
C:\USERS\MATISS\DESKTOP\KURSA_DARBS\GLSDK\GLUTIL\DEBUG\VC120.PDB
