^C:\USERS\MATISS\DESKTOP\KURSA_DARBS\GLSDK_0_5_2\GLUTIL\DEBUG\DEBUG.OBJ|C:\USERS\MATISS\DESKTOP\KURSA_DARBS\GLSDK_0_5_2\GLUTIL\DEBUG\FONT.OBJ|C:\USERS\MATISS\DESKTOP\KURSA_DARBS\GLSDK_0_5_2\GLUTIL\DEBUG\FTDATA.OBJ|C:\USERS\MATISS\DESKTOP\KURSA_DARBS\GLSDK_0_5_2\GLUTIL\DEBUG\MATRIXSTACK.OBJ|C:\USERS\MATISS\DESKTOP\KURSA_DARBS\GLSDK_0_5_2\GLUTIL\DEBUG\MOUSEPOLES.OBJ|C:\USERS\MATISS\DESKTOP\KURSA_DARBS\GLSDK_0_5_2\GLUTIL\DEBUG\SHADER.OBJ|C:\USERS\MATISS\DESKTOP\KURSA_DARBS\GLSDK_0_5_2\GLUTIL\DEBUG\WINDOWPOS.OBJ
C:\USERS\MATISS\DESKTOP\KURSA_DARBS\GLSDK_0_5_2\GLUTIL\LIB\GLUTILD.LIB
^C:\USERS\MATISS\DESKTOP\KURSA_DARBS\GLSDK\GLUTIL\DEBUG\DEBUG.OBJ|C:\USERS\MATISS\DESKTOP\KURSA_DARBS\GLSDK\GLUTIL\DEBUG\FONT.OBJ|C:\USERS\MATISS\DESKTOP\KURSA_DARBS\GLSDK\GLUTIL\DEBUG\FTDATA.OBJ|C:\USERS\MATISS\DESKTOP\KURSA_DARBS\GLSDK\GLUTIL\DEBUG\MATRIXSTACK.OBJ|C:\USERS\MATISS\DESKTOP\KURSA_DARBS\GLSDK\GLUTIL\DEBUG\MOUSEPOLES.OBJ|C:\USERS\MATISS\DESKTOP\KURSA_DARBS\GLSDK\GLUTIL\DEBUG\SHADER.OBJ|C:\USERS\MATISS\DESKTOP\KURSA_DARBS\GLSDK\GLUTIL\DEBUG\WINDOWPOS.OBJ
C:\USERS\MATISS\DESKTOP\KURSA_DARBS\GLSDK\GLUTIL\LIB\GLUTILD.LIB
