^C:\Users\Matiss\Desktop\kursa_darbs\glsdk\freeglut\freeglut.vcxproj
C:\Users\Matiss\Desktop\kursa_darbs\glsdk\freeglut\lib\Debug\freeglutd.lib
C:\Users\Matiss\Desktop\kursa_darbs\glsdk\freeglut\lib\Debug\freeglutd.exp
