^C:\USERS\MATISS\DESKTOP\KURSA_DARBS\GLSDK\FREEGLUT\FREEGLUT.DIR\DEBUG\FG_CALLBACKS.OBJ|C:\USERS\MATISS\DESKTOP\KURSA_DARBS\GLSDK\FREEGLUT\FREEGLUT.DIR\DEBUG\FG_CURSOR.OBJ|C:\USERS\MATISS\DESKTOP\KURSA_DARBS\GLSDK\FREEGLUT\FREEGLUT.DIR\DEBUG\FG_CURSOR_MSWIN.OBJ|C:\USERS\MATISS\DESKTOP\KURSA_DARBS\GLSDK\FREEGLUT\FREEGLUT.DIR\DEBUG\FG_DISPLAY.OBJ|C:\USERS\MATISS\DESKTOP\KURSA_DARBS\GLSDK\FREEGLUT\FREEGLUT.DIR\DEBUG\FG_DISPLAY_MSWIN.OBJ|C:\USERS\MATISS\DESKTOP\KURSA_DARBS\GLSDK\FREEGLUT\FREEGLUT.DIR\DEBUG\FG_EXT.OBJ|C:\USERS\MATISS\DESKTOP\KURSA_DARBS\GLSDK\FREEGLUT\FREEGLUT.DIR\DEBUG\FG_EXT_MSWIN.OBJ|C:\USERS\MATISS\DESKTOP\KURSA_DARBS\GLSDK\FREEGLUT\FREEGLUT.DIR\DEBUG\FG_FONT.OBJ|C:\USERS\MATISS\DESKTOP\KURSA_DARBS\GLSDK\FREEGLUT\FREEGLUT.DIR\DEBUG\FG_FONT_DATA.OBJ|C:\USERS\MATISS\DESKTOP\KURSA_DARBS\GLSDK\FREEGLUT\FREEGLUT.DIR\DEBUG\FG_GAMEMODE.OBJ|C:\USERS\MATISS\DESKTOP\KURSA_DARBS\GLSDK\FREEGLUT\FREEGLUT.DIR\DEBUG\FG_GAMEMODE_MSWIN.OBJ|C:\USERS\MATISS\DESKTOP\KURSA_DARBS\GLSDK\FREEGLUT\FREEGLUT.DIR\DEBUG\FG_GEOMETRY.OBJ|C:\USERS\MATISS\DESKTOP\KURSA_DARBS\GLSDK\FREEGLUT\FREEGLUT.DIR\DEBUG\FG_GL2.OBJ|C:\USERS\MATISS\DESKTOP\KURSA_DARBS\GLSDK\FREEGLUT\FREEGLUT.DIR\DEBUG\FG_INIT.OBJ|C:\USERS\MATISS\DESKTOP\KURSA_DARBS\GLSDK\FREEGLUT\FREEGLUT.DIR\DEBUG\FG_INIT_MSWIN.OBJ|C:\USERS\MATISS\DESKTOP\KURSA_DARBS\GLSDK\FREEGLUT\FREEGLUT.DIR\DEBUG\FG_INPUT_DEVICES.OBJ|C:\USERS\MATISS\DESKTOP\KURSA_DARBS\GLSDK\FREEGLUT\FREEGLUT.DIR\DEBUG\FG_INPUT_DEVICES_MSWIN.OBJ|C:\USERS\MATISS\DESKTOP\KURSA_DARBS\GLSDK\FREEGLUT\FREEGLUT.DIR\DEBUG\FG_JOYSTICK.OBJ|C:\USERS\MATISS\DESKTOP\KURSA_DARBS\GLSDK\FREEGLUT\FREEGLUT.DIR\DEBUG\FG_JOYSTICK_MSWIN.OBJ|C:\USERS\MATISS\DESKTOP\KURSA_DARBS\GLSDK\FREEGLUT\FREEGLUT.DIR\DEBUG\FG_MAIN.OBJ|C:\USERS\MATISS\DESKTOP\KURSA_DARBS\GLSDK\FREEGLUT\FREEGLUT.DIR\DEBUG\FG_MAIN_MSWIN.OBJ|C:\USERS\MATISS\DESKTOP\KURSA_DARBS\GLSDK\FREEGLUT\FREEGLUT.DIR\DEBUG\FG_MENU.OBJ|C:\USERS\MATISS\DESKTOP\KURSA_DARBS\GLSDK\FREEGLUT\FREEGLUT.DIR\DEBUG\FG_MENU_MSWIN.OBJ|C:\USERS\MATISS\DESKTOP\KURSA_DARBS\GLSDK\FREEGLUT\FREEGLUT.DIR\DEBUG\FG_MISC.OBJ|C:\USERS\MATISS\DESKTOP\KURSA_DARBS\GLSDK\FREEGLUT\FREEGLUT.DIR\DEBUG\FG_OVERLAY.OBJ|C:\USERS\MATISS\DESKTOP\KURSA_DARBS\GLSDK\FREEGLUT\FREEGLUT.DIR\DEBUG\FG_SPACEBALL.OBJ|C:\USERS\MATISS\DESKTOP\KURSA_DARBS\GLSDK\FREEGLUT\FREEGLUT.DIR\DEBUG\FG_SPACEBALL_MSWIN.OBJ|C:\USERS\MATISS\DESKTOP\KURSA_DARBS\GLSDK\FREEGLUT\FREEGLUT.DIR\DEBUG\FG_STATE.OBJ|C:\USERS\MATISS\DESKTOP\KURSA_DARBS\GLSDK\FREEGLUT\FREEGLUT.DIR\DEBUG\FG_STATE_MSWIN.OBJ|C:\USERS\MATISS\DESKTOP\KURSA_DARBS\GLSDK\FREEGLUT\FREEGLUT.DIR\DEBUG\FG_STROKE_MONO_ROMAN.OBJ|C:\USERS\MATISS\DESKTOP\KURSA_DARBS\GLSDK\FREEGLUT\FREEGLUT.DIR\DEBUG\FG_STROKE_ROMAN.OBJ|C:\USERS\MATISS\DESKTOP\KURSA_DARBS\GLSDK\FREEGLUT\FREEGLUT.DIR\DEBUG\FG_STRUCTURE.OBJ|C:\USERS\MATISS\DESKTOP\KURSA_DARBS\GLSDK\FREEGLUT\FREEGLUT.DIR\DEBUG\FG_STRUCTURE_MSWIN.OBJ|C:\USERS\MATISS\DESKTOP\KURSA_DARBS\GLSDK\FREEGLUT\FREEGLUT.DIR\DEBUG\FG_TEAPOT.OBJ|C:\USERS\MATISS\DESKTOP\KURSA_DARBS\GLSDK\FREEGLUT\FREEGLUT.DIR\DEBUG\FG_VIDEORESIZE.OBJ|C:\USERS\MATISS\DESKTOP\KURSA_DARBS\GLSDK\FREEGLUT\FREEGLUT.DIR\DEBUG\FG_WINDOW.OBJ|C:\USERS\MATISS\DESKTOP\KURSA_DARBS\GLSDK\FREEGLUT\FREEGLUT.DIR\DEBUG\FG_WINDOW_MSWIN.OBJ|C:\USERS\MATISS\DESKTOP\KURSA_DARBS\GLSDK\FREEGLUT\FREEGLUT.DIR\DEBUG\FREEGLUT.RES|C:\USERS\MATISS\DESKTOP\KURSA_DARBS\GLSDK\FREEGLUT\FREEGLUT.DIR\DEBUG\XPARSEGEOMETRY_REPL.OBJ
C:\USERS\MATISS\DESKTOP\KURSA_DARBS\GLSDK\FREEGLUT\BIN\DEBUG\FREEGLUTD.ILK
C:\USERS\MATISS\DESKTOP\KURSA_DARBS\GLSDK\FREEGLUT\BIN\DEBUG\FREEGLUTD.DLL
C:\USERS\MATISS\DESKTOP\KURSA_DARBS\GLSDK\FREEGLUT\BIN\DEBUG\FREEGLUTD.PDB
