^C:\USERS\MATISS\DESKTOP\KURSA_DARBS\GLSDK\FREEGLUT\CMAKELISTS.TXT
C:\USERS\MATISS\DESKTOP\KURSA_DARBS\GLSDK\FREEGLUT\CMAKEFILES\3.2.1\CMAKESYSTEM.CMAKE
C:\PROGRAM FILES (X86)\CMAKE\SHARE\CMAKE-3.2\MODULES\CMAKESYSTEMSPECIFICINITIALIZE.CMAKE
C:\USERS\MATISS\DESKTOP\KURSA_DARBS\GLSDK\FREEGLUT\CMAKEFILES\3.2.1\CMAKECCOMPILER.CMAKE
C:\USERS\MATISS\DESKTOP\KURSA_DARBS\GLSDK\FREEGLUT\CMAKEFILES\3.2.1\CMAKECXXCOMPILER.CMAKE
C:\PROGRAM FILES (X86)\CMAKE\SHARE\CMAKE-3.2\MODULES\CMAKESYSTEMSPECIFICINFORMATION.CMAKE
C:\PROGRAM FILES (X86)\CMAKE\SHARE\CMAKE-3.2\MODULES\CMAKEGENERICSYSTEM.CMAKE
C:\PROGRAM FILES (X86)\CMAKE\SHARE\CMAKE-3.2\MODULES\PLATFORM\WINDOWS.CMAKE
C:\PROGRAM FILES (X86)\CMAKE\SHARE\CMAKE-3.2\MODULES\PLATFORM\WINDOWSPATHS.CMAKE
C:\PROGRAM FILES (X86)\CMAKE\SHARE\CMAKE-3.2\MODULES\CMAKECINFORMATION.CMAKE
C:\PROGRAM FILES (X86)\CMAKE\SHARE\CMAKE-3.2\MODULES\PLATFORM\WINDOWS-MSVC-C.CMAKE
C:\PROGRAM FILES (X86)\CMAKE\SHARE\CMAKE-3.2\MODULES\PLATFORM\WINDOWS-MSVC.CMAKE
C:\USERS\MATISS\DESKTOP\KURSA_DARBS\GLSDK\FREEGLUT\CMAKEFILES\3.2.1\CMAKERCCOMPILER.CMAKE
C:\PROGRAM FILES (X86)\CMAKE\SHARE\CMAKE-3.2\MODULES\CMAKERCINFORMATION.CMAKE
C:\PROGRAM FILES (X86)\CMAKE\SHARE\CMAKE-3.2\MODULES\CMAKECOMMONLANGUAGEINCLUDE.CMAKE
C:\PROGRAM FILES (X86)\CMAKE\SHARE\CMAKE-3.2\MODULES\CMAKECXXINFORMATION.CMAKE
C:\PROGRAM FILES (X86)\CMAKE\SHARE\CMAKE-3.2\MODULES\COMPILER\MSVC-CXX.CMAKE
C:\PROGRAM FILES (X86)\CMAKE\SHARE\CMAKE-3.2\MODULES\PLATFORM\WINDOWS-MSVC-CXX.CMAKE
C:\PROGRAM FILES (X86)\CMAKE\SHARE\CMAKE-3.2\MODULES\GNUINSTALLDIRS.CMAKE
C:\USERS\MATISS\DESKTOP\KURSA_DARBS\GLSDK\FREEGLUT\SRC\FG_VERSION.H.IN
C:\PROGRAM FILES (X86)\CMAKE\SHARE\CMAKE-3.2\MODULES\FINDOPENGL.CMAKE
C:\PROGRAM FILES (X86)\CMAKE\SHARE\CMAKE-3.2\MODULES\FINDPACKAGEHANDLESTANDARDARGS.CMAKE
C:\PROGRAM FILES (X86)\CMAKE\SHARE\CMAKE-3.2\MODULES\FINDPACKAGEMESSAGE.CMAKE
C:\PROGRAM FILES (X86)\CMAKE\SHARE\CMAKE-3.2\MODULES\CMAKEPARSEARGUMENTS.CMAKE
C:\PROGRAM FILES (X86)\CMAKE\SHARE\CMAKE-3.2\MODULES\CHECKINCLUDEFILES.CMAKE
C:\PROGRAM FILES (X86)\CMAKE\SHARE\CMAKE-3.2\MODULES\CHECKFUNCTIONEXISTS.CMAKE
C:\PROGRAM FILES (X86)\CMAKE\SHARE\CMAKE-3.2\MODULES\CHECKTYPESIZE.CMAKE
C:\PROGRAM FILES (X86)\CMAKE\SHARE\CMAKE-3.2\MODULES\CHECKINCLUDEFILE.CMAKE
C:\PROGRAM FILES (X86)\CMAKE\SHARE\CMAKE-3.2\MODULES\CHECKINCLUDEFILECXX.CMAKE
C:\USERS\MATISS\DESKTOP\KURSA_DARBS\GLSDK\FREEGLUT\CONFIG.H.IN
C:\USERS\MATISS\DESKTOP\KURSA_DARBS\GLSDK\FREEGLUT\FREEGLUT.RC.IN
C:\USERS\MATISS\DESKTOP\KURSA_DARBS\GLSDK\FREEGLUT\SRC\FREEGLUTDLL.DEF.IN
C:\USERS\MATISS\DESKTOP\KURSA_DARBS\GLSDK\FREEGLUT\FREEGLUT.PC.IN
