^C:\USERS\MATISS\DESKTOP\KURSA_DARBS\GLSDK_0_5_2\EXAMPLES\FONT_TEST\FONT_TEST.CPP
C:\USERS\MATISS\DESKTOP\KURSA_DARBS\GLSDK_0_5_2\EXAMPLES\FONT_TEST\OBJ\DEBUG\VC120.PDB
C:\USERS\MATISS\DESKTOP\KURSA_DARBS\GLSDK_0_5_2\EXAMPLES\FONT_TEST\OBJ\DEBUG\VC120.IDB
C:\USERS\MATISS\DESKTOP\KURSA_DARBS\GLSDK_0_5_2\EXAMPLES\FONT_TEST\OBJ\DEBUG\FONT_TEST.OBJ
