^C:\USERS\MATISS\DESKTOP\KURSA_DARBS\GLSDK\FREEGLUT\PROGS\DEMOS\MULTI-TOUCH\MULTI-TOUCH.C
C:\USERS\MATISS\DESKTOP\KURSA_DARBS\GLSDK\FREEGLUT\MULTI-TOUCH.DIR\DEBUG\VC120.PDB
C:\USERS\MATISS\DESKTOP\KURSA_DARBS\GLSDK\FREEGLUT\MULTI-TOUCH.DIR\DEBUG\MULTI-TOUCH.OBJ
