^C:\USERS\MATISS\DESKTOP\KURSA_DARBS\GLSDK\GLMESH\SOURCE\CPUDATAWRITER.CPP|C:\USERS\MATISS\DESKTOP\KURSA_DARBS\GLSDK\GLMESH\SOURCE\DRAW.CPP|C:\USERS\MATISS\DESKTOP\KURSA_DARBS\GLSDK\GLMESH\SOURCE\GENHELPER.CPP|C:\USERS\MATISS\DESKTOP\KURSA_DARBS\GLSDK\GLMESH\SOURCE\GENMESHMISC.CPP|C:\USERS\MATISS\DESKTOP\KURSA_DARBS\GLSDK\GLMESH\SOURCE\GENPLATONIC.CPP|C:\USERS\MATISS\DESKTOP\KURSA_DARBS\GLSDK\GLMESH\SOURCE\GENQUADRICS.CPP|C:\USERS\MATISS\DESKTOP\KURSA_DARBS\GLSDK\GLMESH\SOURCE\MESH.CPP|C:\USERS\MATISS\DESKTOP\KURSA_DARBS\GLSDK\GLMESH\SOURCE\STREAMBUFFER.CPP|C:\USERS\MATISS\DESKTOP\KURSA_DARBS\GLSDK\GLMESH\SOURCE\VERTEXFORMAT.CPP|C:\USERS\MATISS\DESKTOP\KURSA_DARBS\GLSDK\GLMESH\SOURCE\VERTEXWRITER.CPP
C:\USERS\MATISS\DESKTOP\KURSA_DARBS\GLSDK\GLMESH\RELEASE\VC120.PDB
C:\USERS\MATISS\DESKTOP\KURSA_DARBS\GLSDK\GLMESH\RELEASE\VERTEXWRITER.OBJ
C:\USERS\MATISS\DESKTOP\KURSA_DARBS\GLSDK\GLMESH\RELEASE\VERTEXFORMAT.OBJ
C:\USERS\MATISS\DESKTOP\KURSA_DARBS\GLSDK\GLMESH\RELEASE\STREAMBUFFER.OBJ
C:\USERS\MATISS\DESKTOP\KURSA_DARBS\GLSDK\GLMESH\RELEASE\MESH.OBJ
C:\USERS\MATISS\DESKTOP\KURSA_DARBS\GLSDK\GLMESH\RELEASE\GENQUADRICS.OBJ
C:\USERS\MATISS\DESKTOP\KURSA_DARBS\GLSDK\GLMESH\RELEASE\GENPLATONIC.OBJ
C:\USERS\MATISS\DESKTOP\KURSA_DARBS\GLSDK\GLMESH\RELEASE\GENMESHMISC.OBJ
C:\USERS\MATISS\DESKTOP\KURSA_DARBS\GLSDK\GLMESH\RELEASE\GENHELPER.OBJ
C:\USERS\MATISS\DESKTOP\KURSA_DARBS\GLSDK\GLMESH\RELEASE\DRAW.OBJ
C:\USERS\MATISS\DESKTOP\KURSA_DARBS\GLSDK\GLMESH\RELEASE\CPUDATAWRITER.OBJ
^C:\USERS\MATISS\DESKTOP\KURSA_DARBS\GLSDK\GLMESH\SOURCE\CPUDATAWRITER.CPP
C:\USERS\MATISS\DESKTOP\KURSA_DARBS\GLSDK\GLMESH\RELEASE\VC120.PDB
^C:\USERS\MATISS\DESKTOP\KURSA_DARBS\GLSDK\GLMESH\SOURCE\DRAW.CPP
C:\USERS\MATISS\DESKTOP\KURSA_DARBS\GLSDK\GLMESH\RELEASE\VC120.PDB
^C:\USERS\MATISS\DESKTOP\KURSA_DARBS\GLSDK\GLMESH\SOURCE\GENHELPER.CPP
C:\USERS\MATISS\DESKTOP\KURSA_DARBS\GLSDK\GLMESH\RELEASE\VC120.PDB
^C:\USERS\MATISS\DESKTOP\KURSA_DARBS\GLSDK\GLMESH\SOURCE\GENMESHMISC.CPP
C:\USERS\MATISS\DESKTOP\KURSA_DARBS\GLSDK\GLMESH\RELEASE\VC120.PDB
^C:\USERS\MATISS\DESKTOP\KURSA_DARBS\GLSDK\GLMESH\SOURCE\GENPLATONIC.CPP
C:\USERS\MATISS\DESKTOP\KURSA_DARBS\GLSDK\GLMESH\RELEASE\VC120.PDB
^C:\USERS\MATISS\DESKTOP\KURSA_DARBS\GLSDK\GLMESH\SOURCE\GENQUADRICS.CPP
C:\USERS\MATISS\DESKTOP\KURSA_DARBS\GLSDK\GLMESH\RELEASE\VC120.PDB
^C:\USERS\MATISS\DESKTOP\KURSA_DARBS\GLSDK\GLMESH\SOURCE\MESH.CPP
C:\USERS\MATISS\DESKTOP\KURSA_DARBS\GLSDK\GLMESH\RELEASE\VC120.PDB
^C:\USERS\MATISS\DESKTOP\KURSA_DARBS\GLSDK\GLMESH\SOURCE\STREAMBUFFER.CPP
C:\USERS\MATISS\DESKTOP\KURSA_DARBS\GLSDK\GLMESH\RELEASE\VC120.PDB
^C:\USERS\MATISS\DESKTOP\KURSA_DARBS\GLSDK\GLMESH\SOURCE\VERTEXFORMAT.CPP
C:\USERS\MATISS\DESKTOP\KURSA_DARBS\GLSDK\GLMESH\RELEASE\VC120.PDB
^C:\USERS\MATISS\DESKTOP\KURSA_DARBS\GLSDK\GLMESH\SOURCE\VERTEXWRITER.CPP
C:\USERS\MATISS\DESKTOP\KURSA_DARBS\GLSDK\GLMESH\RELEASE\VC120.PDB
