﻿Build started 2015.04.07. 19:38:27.
     1>Project "C:\Users\Matiss\Desktop\kursa_darbs\glsdk\freeglut\One_static.vcxproj" on node 5 (Build target(s)).
     1>CustomBuild:
         Building Custom Rule C:/Users/Matiss/Desktop/kursa_darbs/glsdk/freeglut/CMakeLists.txt
         CMake does not need to re-run because C:\Users\Matiss\Desktop\kursa_darbs\glsdk\freeglut\CMakeFiles\generate.stamp is up-to-date.
       ClCompile:
         C:\Program Files (x86)\Microsoft Visual Studio 12.0\VC\bin\CL.exe /c /IC:\Users\Matiss\Desktop\kursa_darbs\glsdk\freeglut\src /IC:\Users\Matiss\Desktop\kursa_darbs\glsdk\freeglut\include /IC:\Users\Matiss\Desktop\kursa_darbs\glsdk\freeglut /nologo /W3 /WX- /O2 /Ob2 /Oy- /D WIN32 /D _WINDOWS /D NDEBUG /D FREEGLUT_STATIC /D _CRT_SECURE_NO_WARNINGS /D _WIN32_WINNT=0x0500 /D WINVER=0x0500 /D HAVE_CONFIG_H /D "CMAKE_INTDIR=\"Release\"" /D _MBCS /Gm- /MD /GS /fp:precise /Zc:wchar_t /Zc:forScope /Fo"One_static.dir\Release\/progs/demos/One/one.c.obj" /Fd"One_static.dir\Release\vc120.pdb" /Gd /TC /analyze- /errorReport:prompt C:\Users\Matiss\Desktop\kursa_darbs\glsdk\freeglut\progs\demos\One\one.c
         one.c
       ResourceCompile:
         C:\Program Files (x86)\Windows Kits\8.1\bin\x86\rc.exe /D WIN32 /D _WINDOWS /D NDEBUG /D FREEGLUT_STATIC /D _CRT_SECURE_NO_WARNINGS /D _WIN32_WINNT=0x0500 /D WINVER=0x0500 /D HAVE_CONFIG_H /D "CMAKE_INTDIR=\\\"Release\\\"" /l"0x0409" /IC:\Users\Matiss\Desktop\kursa_darbs\glsdk\freeglut\src /IC:\Users\Matiss\Desktop\kursa_darbs\glsdk\freeglut\include /IC:\Users\Matiss\Desktop\kursa_darbs\glsdk\freeglut /nologo /fo"One_static.dir\Release\one.res" C:\Users\Matiss\Desktop\kursa_darbs\glsdk\freeglut\progs\demos\One\one.rc 
       Link:
         C:\Program Files (x86)\Microsoft Visual Studio 12.0\VC\bin\link.exe /ERRORREPORT:PROMPT /OUT:"C:\Users\Matiss\Desktop\kursa_darbs\glsdk\freeglut\bin\Release\One_static.exe" /INCREMENTAL:NO /NOLOGO kernel32.lib user32.lib gdi32.lib winspool.lib shell32.lib ole32.lib oleaut32.lib uuid.lib comdlg32.lib advapi32.lib glu32.lib opengl32.lib winmm.lib lib\Release\freeglut_static.lib opengl32.lib winmm.lib /MANIFEST /MANIFESTUAC:"level='asInvoker' uiAccess='false'" /manifest:embed /PDB:"C:/Users/Matiss/Desktop/kursa_darbs/glsdk/freeglut/bin/Release/One_static.pdb" /SUBSYSTEM:CONSOLE /TLBID:1 /DYNAMICBASE /NXCOMPAT /IMPLIB:"C:/Users/Matiss/Desktop/kursa_darbs/glsdk/freeglut/lib/Release/One_static.lib" /MACHINE:X86 /SAFESEH  /machine:X86 One_static.dir\Release\one.res
         One_static.dir\Release\/progs/demos/One/one.c.obj
         One_static.vcxproj -> C:\Users\Matiss\Desktop\kursa_darbs\glsdk\freeglut\bin\Release\One_static.exe
     1>Done Building Project "C:\Users\Matiss\Desktop\kursa_darbs\glsdk\freeglut\One_static.vcxproj" (Build target(s)).

Build succeeded.

Time Elapsed 00:00:00.39
