^C:\USERS\MATISS\DESKTOP\KURSA_DARBS\GLSDK\FREEGLUT\SRC\FG_CALLBACKS.C|C:\USERS\MATISS\DESKTOP\KURSA_DARBS\GLSDK\FREEGLUT\SRC\FG_CURSOR.C|C:\USERS\MATISS\DESKTOP\KURSA_DARBS\GLSDK\FREEGLUT\SRC\FG_DISPLAY.C|C:\USERS\MATISS\DESKTOP\KURSA_DARBS\GLSDK\FREEGLUT\SRC\FG_EXT.C|C:\USERS\MATISS\DESKTOP\KURSA_DARBS\GLSDK\FREEGLUT\SRC\FG_FONT.C|C:\USERS\MATISS\DESKTOP\KURSA_DARBS\GLSDK\FREEGLUT\SRC\FG_FONT_DATA.C|C:\USERS\MATISS\DESKTOP\KURSA_DARBS\GLSDK\FREEGLUT\SRC\FG_GAMEMODE.C|C:\USERS\MATISS\DESKTOP\KURSA_DARBS\GLSDK\FREEGLUT\SRC\FG_GEOMETRY.C|C:\USERS\MATISS\DESKTOP\KURSA_DARBS\GLSDK\FREEGLUT\SRC\FG_GL2.C|C:\USERS\MATISS\DESKTOP\KURSA_DARBS\GLSDK\FREEGLUT\SRC\FG_INIT.C|C:\USERS\MATISS\DESKTOP\KURSA_DARBS\GLSDK\FREEGLUT\SRC\FG_INPUT_DEVICES.C|C:\USERS\MATISS\DESKTOP\KURSA_DARBS\GLSDK\FREEGLUT\SRC\FG_JOYSTICK.C|C:\USERS\MATISS\DESKTOP\KURSA_DARBS\GLSDK\FREEGLUT\SRC\FG_MAIN.C|C:\USERS\MATISS\DESKTOP\KURSA_DARBS\GLSDK\FREEGLUT\SRC\FG_MENU.C|C:\USERS\MATISS\DESKTOP\KURSA_DARBS\GLSDK\FREEGLUT\SRC\FG_MISC.C|C:\USERS\MATISS\DESKTOP\KURSA_DARBS\GLSDK\FREEGLUT\SRC\FG_OVERLAY.C|C:\USERS\MATISS\DESKTOP\KURSA_DARBS\GLSDK\FREEGLUT\SRC\FG_SPACEBALL.C|C:\USERS\MATISS\DESKTOP\KURSA_DARBS\GLSDK\FREEGLUT\SRC\FG_STATE.C|C:\USERS\MATISS\DESKTOP\KURSA_DARBS\GLSDK\FREEGLUT\SRC\FG_STROKE_MONO_ROMAN.C|C:\USERS\MATISS\DESKTOP\KURSA_DARBS\GLSDK\FREEGLUT\SRC\FG_STROKE_ROMAN.C|C:\USERS\MATISS\DESKTOP\KURSA_DARBS\GLSDK\FREEGLUT\SRC\FG_STRUCTURE.C|C:\USERS\MATISS\DESKTOP\KURSA_DARBS\GLSDK\FREEGLUT\SRC\FG_TEAPOT.C|C:\USERS\MATISS\DESKTOP\KURSA_DARBS\GLSDK\FREEGLUT\SRC\FG_VIDEORESIZE.C|C:\USERS\MATISS\DESKTOP\KURSA_DARBS\GLSDK\FREEGLUT\SRC\FG_WINDOW.C|C:\USERS\MATISS\DESKTOP\KURSA_DARBS\GLSDK\FREEGLUT\SRC\MSWIN\FG_CURSOR_MSWIN.C|C:\USERS\MATISS\DESKTOP\KURSA_DARBS\GLSDK\FREEGLUT\SRC\MSWIN\FG_DISPLAY_MSWIN.C|C:\USERS\MATISS\DESKTOP\KURSA_DARBS\GLSDK\FREEGLUT\SRC\MSWIN\FG_EXT_MSWIN.C|C:\USERS\MATISS\DESKTOP\KURSA_DARBS\GLSDK\FREEGLUT\SRC\MSWIN\FG_GAMEMODE_MSWIN.C|C:\USERS\MATISS\DESKTOP\KURSA_DARBS\GLSDK\FREEGLUT\SRC\MSWIN\FG_INIT_MSWIN.C|C:\USERS\MATISS\DESKTOP\KURSA_DARBS\GLSDK\FREEGLUT\SRC\MSWIN\FG_INPUT_DEVICES_MSWIN.C|C:\USERS\MATISS\DESKTOP\KURSA_DARBS\GLSDK\FREEGLUT\SRC\MSWIN\FG_JOYSTICK_MSWIN.C|C:\USERS\MATISS\DESKTOP\KURSA_DARBS\GLSDK\FREEGLUT\SRC\MSWIN\FG_MAIN_MSWIN.C|C:\USERS\MATISS\DESKTOP\KURSA_DARBS\GLSDK\FREEGLUT\SRC\MSWIN\FG_MENU_MSWIN.C|C:\USERS\MATISS\DESKTOP\KURSA_DARBS\GLSDK\FREEGLUT\SRC\MSWIN\FG_SPACEBALL_MSWIN.C|C:\USERS\MATISS\DESKTOP\KURSA_DARBS\GLSDK\FREEGLUT\SRC\MSWIN\FG_STATE_MSWIN.C|C:\USERS\MATISS\DESKTOP\KURSA_DARBS\GLSDK\FREEGLUT\SRC\MSWIN\FG_STRUCTURE_MSWIN.C|C:\USERS\MATISS\DESKTOP\KURSA_DARBS\GLSDK\FREEGLUT\SRC\MSWIN\FG_WINDOW_MSWIN.C|C:\USERS\MATISS\DESKTOP\KURSA_DARBS\GLSDK\FREEGLUT\SRC\UTIL\XPARSEGEOMETRY_REPL.C
C:\USERS\MATISS\DESKTOP\KURSA_DARBS\GLSDK\FREEGLUT\FREEGLUT.DIR\RELEASE\FG_TEAPOT.OBJ
C:\USERS\MATISS\DESKTOP\KURSA_DARBS\GLSDK\FREEGLUT\FREEGLUT.DIR\RELEASE\FG_STRUCTURE.OBJ
C:\USERS\MATISS\DESKTOP\KURSA_DARBS\GLSDK\FREEGLUT\FREEGLUT.DIR\RELEASE\FG_STROKE_ROMAN.OBJ
C:\USERS\MATISS\DESKTOP\KURSA_DARBS\GLSDK\FREEGLUT\FREEGLUT.DIR\RELEASE\FG_STROKE_MONO_ROMAN.OBJ
C:\USERS\MATISS\DESKTOP\KURSA_DARBS\GLSDK\FREEGLUT\FREEGLUT.DIR\RELEASE\FG_STATE.OBJ
C:\USERS\MATISS\DESKTOP\KURSA_DARBS\GLSDK\FREEGLUT\FREEGLUT.DIR\RELEASE\FG_SPACEBALL.OBJ
C:\USERS\MATISS\DESKTOP\KURSA_DARBS\GLSDK\FREEGLUT\FREEGLUT.DIR\RELEASE\FG_OVERLAY.OBJ
C:\USERS\MATISS\DESKTOP\KURSA_DARBS\GLSDK\FREEGLUT\FREEGLUT.DIR\RELEASE\FG_MISC.OBJ
C:\USERS\MATISS\DESKTOP\KURSA_DARBS\GLSDK\FREEGLUT\FREEGLUT.DIR\RELEASE\FG_MAIN.OBJ
C:\USERS\MATISS\DESKTOP\KURSA_DARBS\GLSDK\FREEGLUT\FREEGLUT.DIR\RELEASE\FG_JOYSTICK.OBJ
C:\USERS\MATISS\DESKTOP\KURSA_DARBS\GLSDK\FREEGLUT\FREEGLUT.DIR\RELEASE\FG_INPUT_DEVICES.OBJ
C:\USERS\MATISS\DESKTOP\KURSA_DARBS\GLSDK\FREEGLUT\FREEGLUT.DIR\RELEASE\FG_INIT.OBJ
C:\USERS\MATISS\DESKTOP\KURSA_DARBS\GLSDK\FREEGLUT\FREEGLUT.DIR\RELEASE\FG_GL2.OBJ
C:\USERS\MATISS\DESKTOP\KURSA_DARBS\GLSDK\FREEGLUT\FREEGLUT.DIR\RELEASE\FG_GEOMETRY.OBJ
C:\USERS\MATISS\DESKTOP\KURSA_DARBS\GLSDK\FREEGLUT\FREEGLUT.DIR\RELEASE\FG_GAMEMODE.OBJ
C:\USERS\MATISS\DESKTOP\KURSA_DARBS\GLSDK\FREEGLUT\FREEGLUT.DIR\RELEASE\FG_FONT_DATA.OBJ
C:\USERS\MATISS\DESKTOP\KURSA_DARBS\GLSDK\FREEGLUT\FREEGLUT.DIR\RELEASE\FG_EXT.OBJ
C:\USERS\MATISS\DESKTOP\KURSA_DARBS\GLSDK\FREEGLUT\FREEGLUT.DIR\RELEASE\FG_DISPLAY.OBJ
C:\USERS\MATISS\DESKTOP\KURSA_DARBS\GLSDK\FREEGLUT\FREEGLUT.DIR\RELEASE\FG_CURSOR.OBJ
C:\USERS\MATISS\DESKTOP\KURSA_DARBS\GLSDK\FREEGLUT\FREEGLUT.DIR\RELEASE\FG_CALLBACKS.OBJ
C:\USERS\MATISS\DESKTOP\KURSA_DARBS\GLSDK\FREEGLUT\FREEGLUT.DIR\RELEASE\XPARSEGEOMETRY_REPL.OBJ
C:\USERS\MATISS\DESKTOP\KURSA_DARBS\GLSDK\FREEGLUT\FREEGLUT.DIR\RELEASE\FG_WINDOW_MSWIN.OBJ
C:\USERS\MATISS\DESKTOP\KURSA_DARBS\GLSDK\FREEGLUT\FREEGLUT.DIR\RELEASE\FG_STRUCTURE_MSWIN.OBJ
C:\USERS\MATISS\DESKTOP\KURSA_DARBS\GLSDK\FREEGLUT\FREEGLUT.DIR\RELEASE\FG_STATE_MSWIN.OBJ
C:\USERS\MATISS\DESKTOP\KURSA_DARBS\GLSDK\FREEGLUT\FREEGLUT.DIR\RELEASE\FG_SPACEBALL_MSWIN.OBJ
C:\USERS\MATISS\DESKTOP\KURSA_DARBS\GLSDK\FREEGLUT\FREEGLUT.DIR\RELEASE\FG_MENU_MSWIN.OBJ
C:\USERS\MATISS\DESKTOP\KURSA_DARBS\GLSDK\FREEGLUT\FREEGLUT.DIR\RELEASE\FG_MAIN_MSWIN.OBJ
C:\USERS\MATISS\DESKTOP\KURSA_DARBS\GLSDK\FREEGLUT\FREEGLUT.DIR\RELEASE\FG_JOYSTICK_MSWIN.OBJ
C:\USERS\MATISS\DESKTOP\KURSA_DARBS\GLSDK\FREEGLUT\FREEGLUT.DIR\RELEASE\FG_INPUT_DEVICES_MSWIN.OBJ
C:\USERS\MATISS\DESKTOP\KURSA_DARBS\GLSDK\FREEGLUT\FREEGLUT.DIR\RELEASE\FG_INIT_MSWIN.OBJ
C:\USERS\MATISS\DESKTOP\KURSA_DARBS\GLSDK\FREEGLUT\FREEGLUT.DIR\RELEASE\FG_GAMEMODE_MSWIN.OBJ
C:\USERS\MATISS\DESKTOP\KURSA_DARBS\GLSDK\FREEGLUT\FREEGLUT.DIR\RELEASE\FG_EXT_MSWIN.OBJ
C:\USERS\MATISS\DESKTOP\KURSA_DARBS\GLSDK\FREEGLUT\FREEGLUT.DIR\RELEASE\FG_DISPLAY_MSWIN.OBJ
C:\USERS\MATISS\DESKTOP\KURSA_DARBS\GLSDK\FREEGLUT\FREEGLUT.DIR\RELEASE\FG_CURSOR_MSWIN.OBJ
C:\USERS\MATISS\DESKTOP\KURSA_DARBS\GLSDK\FREEGLUT\FREEGLUT.DIR\RELEASE\FG_MENU.OBJ
C:\USERS\MATISS\DESKTOP\KURSA_DARBS\GLSDK\FREEGLUT\FREEGLUT.DIR\RELEASE\FG_FONT.OBJ
C:\USERS\MATISS\DESKTOP\KURSA_DARBS\GLSDK\FREEGLUT\FREEGLUT.DIR\RELEASE\FG_WINDOW.OBJ
C:\USERS\MATISS\DESKTOP\KURSA_DARBS\GLSDK\FREEGLUT\FREEGLUT.DIR\RELEASE\FG_VIDEORESIZE.OBJ
