^C:\USERS\MATISS\DESKTOP\KURSA_DARBS\GLSDK\GLLOAD\RELEASE\GL_LOAD.OBJ|C:\USERS\MATISS\DESKTOP\KURSA_DARBS\GLSDK\GLLOAD\RELEASE\GL_LOAD_CPP.OBJ|C:\USERS\MATISS\DESKTOP\KURSA_DARBS\GLSDK\GLLOAD\RELEASE\WGL_LOAD.OBJ|C:\USERS\MATISS\DESKTOP\KURSA_DARBS\GLSDK\GLLOAD\RELEASE\WGL_LOAD_CPP.OBJ
C:\WINDOWS\SYSTEM32\TZRES.DLL
C:\USERS\MATISS\DESKTOP\KURSA_DARBS\GLSDK\GLLOAD\RELEASE\GL_LOAD.OBJ
C:\USERS\MATISS\DESKTOP\KURSA_DARBS\GLSDK\GLLOAD\RELEASE\GL_LOAD_CPP.OBJ
C:\USERS\MATISS\DESKTOP\KURSA_DARBS\GLSDK\GLLOAD\RELEASE\WGL_LOAD.OBJ
C:\USERS\MATISS\DESKTOP\KURSA_DARBS\GLSDK\GLLOAD\RELEASE\WGL_LOAD_CPP.OBJ
C:\WINDOWS\GLOBALIZATION\SORTING\SORTDEFAULT.NLS
