^C:\USERS\MATISS\DESKTOP\KURSA_DARBS\GLSDK\FREEGLUT\RESIZER_STATIC.DIR\DEBUG\RESIZER.OBJ
C:\USERS\MATISS\DESKTOP\KURSA_DARBS\GLSDK\FREEGLUT\BIN\DEBUG\RESIZER_STATICD.ILK
C:\USERS\MATISS\DESKTOP\KURSA_DARBS\GLSDK\FREEGLUT\BIN\DEBUG\RESIZER_STATICD.EXE
C:\USERS\MATISS\DESKTOP\KURSA_DARBS\GLSDK\FREEGLUT\BIN\DEBUG\RESIZER_STATICD.PDB
