^C:\USERS\MATISS\DESKTOP\KURSA_DARBS\GLSDK\FREEGLUT\FRACTALS_RANDOM.DIR\DEBUG\FRACTALS_RANDOM.OBJ
C:\USERS\MATISS\DESKTOP\KURSA_DARBS\GLSDK\FREEGLUT\BIN\DEBUG\FRACTALS_RANDOMD.ILK
C:\USERS\MATISS\DESKTOP\KURSA_DARBS\GLSDK\FREEGLUT\BIN\DEBUG\FRACTALS_RANDOMD.EXE
C:\USERS\MATISS\DESKTOP\KURSA_DARBS\GLSDK\FREEGLUT\BIN\DEBUG\FRACTALS_RANDOMD.PDB
