c:\users\matiss\desktop\glsdk_0_5_2\glload\debug\vc120.pdb
c:\users\matiss\desktop\glsdk_0_5_2\glload\debug\vc120.idb
c:\users\matiss\desktop\glsdk_0_5_2\glload\debug\gl_load.obj
c:\users\matiss\desktop\glsdk_0_5_2\glload\debug\wgl_load.obj
c:\users\matiss\desktop\glsdk_0_5_2\glload\debug\gl_load_cpp.obj
c:\users\matiss\desktop\glsdk_0_5_2\glload\debug\wgl_load_cpp.obj
c:\users\matiss\desktop\glsdk_0_5_2\glload\lib\glloadd.lib
c:\users\matiss\desktop\kursa_darbs\glsdk_0_5_2\glload\debug\gl_load.obj
c:\users\matiss\desktop\kursa_darbs\glsdk_0_5_2\glload\debug\gl_load_cpp.obj
c:\users\matiss\desktop\kursa_darbs\glsdk_0_5_2\glload\debug\wgl_load.obj
c:\users\matiss\desktop\kursa_darbs\glsdk_0_5_2\glload\debug\wgl_load_cpp.obj
c:\users\matiss\desktop\kursa_darbs\glsdk_0_5_2\glload\debug\vc120.idb
c:\users\matiss\desktop\kursa_darbs\glsdk_0_5_2\glload\debug\vc120.pdb
c:\users\matiss\desktop\kursa_darbs\glsdk_0_5_2\glload\debug\glload.tlog\cl.command.1.tlog
c:\users\matiss\desktop\kursa_darbs\glsdk_0_5_2\glload\debug\glload.tlog\cl.read.1.tlog
c:\users\matiss\desktop\kursa_darbs\glsdk_0_5_2\glload\debug\glload.tlog\cl.write.1.tlog
c:\users\matiss\desktop\kursa_darbs\glsdk_0_5_2\glload\debug\glload.tlog\lib-link.read.1.tlog
c:\users\matiss\desktop\kursa_darbs\glsdk_0_5_2\glload\debug\glload.tlog\lib-link.write.1.tlog
c:\users\matiss\desktop\kursa_darbs\glsdk_0_5_2\glload\debug\glload.tlog\lib.command.1.tlog
