^C:\USERS\MATISS\DESKTOP\KURSA_DARBS\GLSDK_0_5_2\FREEGLUT\SRC\FREEGLUT_CALLBACKS.C|C:\USERS\MATISS\DESKTOP\KURSA_DARBS\GLSDK_0_5_2\FREEGLUT\SRC\FREEGLUT_CURSOR.C|C:\USERS\MATISS\DESKTOP\KURSA_DARBS\GLSDK_0_5_2\FREEGLUT\SRC\FREEGLUT_DISPLAY.C|C:\USERS\MATISS\DESKTOP\KURSA_DARBS\GLSDK_0_5_2\FREEGLUT\SRC\FREEGLUT_EXT.C|C:\USERS\MATISS\DESKTOP\KURSA_DARBS\GLSDK_0_5_2\FREEGLUT\SRC\FREEGLUT_FONT.C|C:\USERS\MATISS\DESKTOP\KURSA_DARBS\GLSDK_0_5_2\FREEGLUT\SRC\FREEGLUT_FONT_DATA.C|C:\USERS\MATISS\DESKTOP\KURSA_DARBS\GLSDK_0_5_2\FREEGLUT\SRC\FREEGLUT_GAMEMODE.C|C:\USERS\MATISS\DESKTOP\KURSA_DARBS\GLSDK_0_5_2\FREEGLUT\SRC\FREEGLUT_GEOMETRY.C|C:\USERS\MATISS\DESKTOP\KURSA_DARBS\GLSDK_0_5_2\FREEGLUT\SRC\FREEGLUT_GLUTFONT_DEFINITIONS.C|C:\USERS\MATISS\DESKTOP\KURSA_DARBS\GLSDK_0_5_2\FREEGLUT\SRC\FREEGLUT_INIT.C|C:\USERS\MATISS\DESKTOP\KURSA_DARBS\GLSDK_0_5_2\FREEGLUT\SRC\FREEGLUT_INPUT_DEVICES.C|C:\USERS\MATISS\DESKTOP\KURSA_DARBS\GLSDK_0_5_2\FREEGLUT\SRC\FREEGLUT_JOYSTICK.C|C:\USERS\MATISS\DESKTOP\KURSA_DARBS\GLSDK_0_5_2\FREEGLUT\SRC\FREEGLUT_MAIN.C|C:\USERS\MATISS\DESKTOP\KURSA_DARBS\GLSDK_0_5_2\FREEGLUT\SRC\FREEGLUT_MENU.C|C:\USERS\MATISS\DESKTOP\KURSA_DARBS\GLSDK_0_5_2\FREEGLUT\SRC\FREEGLUT_MISC.C|C:\USERS\MATISS\DESKTOP\KURSA_DARBS\GLSDK_0_5_2\FREEGLUT\SRC\FREEGLUT_OVERLAY.C|C:\USERS\MATISS\DESKTOP\KURSA_DARBS\GLSDK_0_5_2\FREEGLUT\SRC\FREEGLUT_SPACEBALL.C|C:\USERS\MATISS\DESKTOP\KURSA_DARBS\GLSDK_0_5_2\FREEGLUT\SRC\FREEGLUT_STATE.C|C:\USERS\MATISS\DESKTOP\KURSA_DARBS\GLSDK_0_5_2\FREEGLUT\SRC\FREEGLUT_STROKE_MONO_ROMAN.C|C:\USERS\MATISS\DESKTOP\KURSA_DARBS\GLSDK_0_5_2\FREEGLUT\SRC\FREEGLUT_STROKE_ROMAN.C|C:\USERS\MATISS\DESKTOP\KURSA_DARBS\GLSDK_0_5_2\FREEGLUT\SRC\FREEGLUT_STRUCTURE.C|C:\USERS\MATISS\DESKTOP\KURSA_DARBS\GLSDK_0_5_2\FREEGLUT\SRC\FREEGLUT_TEAPOT.C|C:\USERS\MATISS\DESKTOP\KURSA_DARBS\GLSDK_0_5_2\FREEGLUT\SRC\FREEGLUT_VIDEORESIZE.C|C:\USERS\MATISS\DESKTOP\KURSA_DARBS\GLSDK_0_5_2\FREEGLUT\SRC\FREEGLUT_WINDOW.C
C:\USERS\MATISS\DESKTOP\KURSA_DARBS\GLSDK_0_5_2\OBJ\DEBUG\FREEGLUT\VC120.PDB
C:\USERS\MATISS\DESKTOP\KURSA_DARBS\GLSDK_0_5_2\OBJ\DEBUG\FREEGLUT\VC120.IDB
C:\USERS\MATISS\DESKTOP\KURSA_DARBS\GLSDK_0_5_2\OBJ\DEBUG\FREEGLUT\FREEGLUT_FONT.OBJ
C:\USERS\MATISS\DESKTOP\KURSA_DARBS\GLSDK_0_5_2\OBJ\DEBUG\FREEGLUT\FREEGLUT_FONT_DATA.OBJ
C:\USERS\MATISS\DESKTOP\KURSA_DARBS\GLSDK_0_5_2\OBJ\DEBUG\FREEGLUT\FREEGLUT_GAMEMODE.OBJ
C:\USERS\MATISS\DESKTOP\KURSA_DARBS\GLSDK_0_5_2\OBJ\DEBUG\FREEGLUT\FREEGLUT_GEOMETRY.OBJ
C:\USERS\MATISS\DESKTOP\KURSA_DARBS\GLSDK_0_5_2\OBJ\DEBUG\FREEGLUT\FREEGLUT_GLUTFONT_DEFINITIONS.OBJ
C:\USERS\MATISS\DESKTOP\KURSA_DARBS\GLSDK_0_5_2\OBJ\DEBUG\FREEGLUT\FREEGLUT_INIT.OBJ
C:\USERS\MATISS\DESKTOP\KURSA_DARBS\GLSDK_0_5_2\OBJ\DEBUG\FREEGLUT\FREEGLUT_INPUT_DEVICES.OBJ
C:\USERS\MATISS\DESKTOP\KURSA_DARBS\GLSDK_0_5_2\OBJ\DEBUG\FREEGLUT\FREEGLUT_JOYSTICK.OBJ
C:\USERS\MATISS\DESKTOP\KURSA_DARBS\GLSDK_0_5_2\OBJ\DEBUG\FREEGLUT\FREEGLUT_MAIN.OBJ
C:\USERS\MATISS\DESKTOP\KURSA_DARBS\GLSDK_0_5_2\OBJ\DEBUG\FREEGLUT\FREEGLUT_MENU.OBJ
C:\USERS\MATISS\DESKTOP\KURSA_DARBS\GLSDK_0_5_2\OBJ\DEBUG\FREEGLUT\FREEGLUT_MISC.OBJ
C:\USERS\MATISS\DESKTOP\KURSA_DARBS\GLSDK_0_5_2\OBJ\DEBUG\FREEGLUT\FREEGLUT_OVERLAY.OBJ
C:\USERS\MATISS\DESKTOP\KURSA_DARBS\GLSDK_0_5_2\OBJ\DEBUG\FREEGLUT\FREEGLUT_SPACEBALL.OBJ
C:\USERS\MATISS\DESKTOP\KURSA_DARBS\GLSDK_0_5_2\OBJ\DEBUG\FREEGLUT\FREEGLUT_STATE.OBJ
C:\USERS\MATISS\DESKTOP\KURSA_DARBS\GLSDK_0_5_2\OBJ\DEBUG\FREEGLUT\FREEGLUT_STROKE_MONO_ROMAN.OBJ
C:\USERS\MATISS\DESKTOP\KURSA_DARBS\GLSDK_0_5_2\OBJ\DEBUG\FREEGLUT\FREEGLUT_STROKE_ROMAN.OBJ
C:\USERS\MATISS\DESKTOP\KURSA_DARBS\GLSDK_0_5_2\OBJ\DEBUG\FREEGLUT\FREEGLUT_STRUCTURE.OBJ
C:\USERS\MATISS\DESKTOP\KURSA_DARBS\GLSDK_0_5_2\OBJ\DEBUG\FREEGLUT\FREEGLUT_TEAPOT.OBJ
C:\USERS\MATISS\DESKTOP\KURSA_DARBS\GLSDK_0_5_2\OBJ\DEBUG\FREEGLUT\FREEGLUT_VIDEORESIZE.OBJ
C:\USERS\MATISS\DESKTOP\KURSA_DARBS\GLSDK_0_5_2\OBJ\DEBUG\FREEGLUT\FREEGLUT_WINDOW.OBJ
C:\USERS\MATISS\DESKTOP\KURSA_DARBS\GLSDK_0_5_2\OBJ\DEBUG\FREEGLUT\FREEGLUT_CALLBACKS.OBJ
C:\USERS\MATISS\DESKTOP\KURSA_DARBS\GLSDK_0_5_2\OBJ\DEBUG\FREEGLUT\FREEGLUT_CURSOR.OBJ
C:\USERS\MATISS\DESKTOP\KURSA_DARBS\GLSDK_0_5_2\OBJ\DEBUG\FREEGLUT\FREEGLUT_DISPLAY.OBJ
C:\USERS\MATISS\DESKTOP\KURSA_DARBS\GLSDK_0_5_2\OBJ\DEBUG\FREEGLUT\FREEGLUT_EXT.OBJ
^C:\USERS\MATISS\DESKTOP\KURSA_DARBS\GLSDK_0_5_2\FREEGLUT\SRC\FREEGLUT_CALLBACKS.C
C:\USERS\MATISS\DESKTOP\KURSA_DARBS\GLSDK_0_5_2\OBJ\DEBUG\FREEGLUT\VC120.PDB
^C:\USERS\MATISS\DESKTOP\KURSA_DARBS\GLSDK_0_5_2\FREEGLUT\SRC\FREEGLUT_CURSOR.C
C:\USERS\MATISS\DESKTOP\KURSA_DARBS\GLSDK_0_5_2\OBJ\DEBUG\FREEGLUT\VC120.PDB
^C:\USERS\MATISS\DESKTOP\KURSA_DARBS\GLSDK_0_5_2\FREEGLUT\SRC\FREEGLUT_DISPLAY.C
C:\USERS\MATISS\DESKTOP\KURSA_DARBS\GLSDK_0_5_2\OBJ\DEBUG\FREEGLUT\VC120.PDB
^C:\USERS\MATISS\DESKTOP\KURSA_DARBS\GLSDK_0_5_2\FREEGLUT\SRC\FREEGLUT_EXT.C
C:\USERS\MATISS\DESKTOP\KURSA_DARBS\GLSDK_0_5_2\OBJ\DEBUG\FREEGLUT\VC120.PDB
^C:\USERS\MATISS\DESKTOP\KURSA_DARBS\GLSDK_0_5_2\FREEGLUT\SRC\FREEGLUT_FONT.C
C:\USERS\MATISS\DESKTOP\KURSA_DARBS\GLSDK_0_5_2\OBJ\DEBUG\FREEGLUT\VC120.PDB
^C:\USERS\MATISS\DESKTOP\KURSA_DARBS\GLSDK_0_5_2\FREEGLUT\SRC\FREEGLUT_FONT_DATA.C
C:\USERS\MATISS\DESKTOP\KURSA_DARBS\GLSDK_0_5_2\OBJ\DEBUG\FREEGLUT\VC120.PDB
^C:\USERS\MATISS\DESKTOP\KURSA_DARBS\GLSDK_0_5_2\FREEGLUT\SRC\FREEGLUT_GAMEMODE.C
C:\USERS\MATISS\DESKTOP\KURSA_DARBS\GLSDK_0_5_2\OBJ\DEBUG\FREEGLUT\VC120.PDB
^C:\USERS\MATISS\DESKTOP\KURSA_DARBS\GLSDK_0_5_2\FREEGLUT\SRC\FREEGLUT_GEOMETRY.C
C:\USERS\MATISS\DESKTOP\KURSA_DARBS\GLSDK_0_5_2\OBJ\DEBUG\FREEGLUT\VC120.PDB
^C:\USERS\MATISS\DESKTOP\KURSA_DARBS\GLSDK_0_5_2\FREEGLUT\SRC\FREEGLUT_GLUTFONT_DEFINITIONS.C
C:\USERS\MATISS\DESKTOP\KURSA_DARBS\GLSDK_0_5_2\OBJ\DEBUG\FREEGLUT\VC120.PDB
^C:\USERS\MATISS\DESKTOP\KURSA_DARBS\GLSDK_0_5_2\FREEGLUT\SRC\FREEGLUT_INIT.C
C:\USERS\MATISS\DESKTOP\KURSA_DARBS\GLSDK_0_5_2\OBJ\DEBUG\FREEGLUT\VC120.PDB
^C:\USERS\MATISS\DESKTOP\KURSA_DARBS\GLSDK_0_5_2\FREEGLUT\SRC\FREEGLUT_INPUT_DEVICES.C
C:\USERS\MATISS\DESKTOP\KURSA_DARBS\GLSDK_0_5_2\OBJ\DEBUG\FREEGLUT\VC120.PDB
^C:\USERS\MATISS\DESKTOP\KURSA_DARBS\GLSDK_0_5_2\FREEGLUT\SRC\FREEGLUT_JOYSTICK.C
C:\USERS\MATISS\DESKTOP\KURSA_DARBS\GLSDK_0_5_2\OBJ\DEBUG\FREEGLUT\VC120.PDB
^C:\USERS\MATISS\DESKTOP\KURSA_DARBS\GLSDK_0_5_2\FREEGLUT\SRC\FREEGLUT_MAIN.C
C:\USERS\MATISS\DESKTOP\KURSA_DARBS\GLSDK_0_5_2\OBJ\DEBUG\FREEGLUT\VC120.PDB
^C:\USERS\MATISS\DESKTOP\KURSA_DARBS\GLSDK_0_5_2\FREEGLUT\SRC\FREEGLUT_MENU.C
C:\USERS\MATISS\DESKTOP\KURSA_DARBS\GLSDK_0_5_2\OBJ\DEBUG\FREEGLUT\VC120.PDB
^C:\USERS\MATISS\DESKTOP\KURSA_DARBS\GLSDK_0_5_2\FREEGLUT\SRC\FREEGLUT_MISC.C
C:\USERS\MATISS\DESKTOP\KURSA_DARBS\GLSDK_0_5_2\OBJ\DEBUG\FREEGLUT\VC120.PDB
^C:\USERS\MATISS\DESKTOP\KURSA_DARBS\GLSDK_0_5_2\FREEGLUT\SRC\FREEGLUT_OVERLAY.C
C:\USERS\MATISS\DESKTOP\KURSA_DARBS\GLSDK_0_5_2\OBJ\DEBUG\FREEGLUT\VC120.PDB
^C:\USERS\MATISS\DESKTOP\KURSA_DARBS\GLSDK_0_5_2\FREEGLUT\SRC\FREEGLUT_SPACEBALL.C
C:\USERS\MATISS\DESKTOP\KURSA_DARBS\GLSDK_0_5_2\OBJ\DEBUG\FREEGLUT\VC120.PDB
^C:\USERS\MATISS\DESKTOP\KURSA_DARBS\GLSDK_0_5_2\FREEGLUT\SRC\FREEGLUT_STATE.C
C:\USERS\MATISS\DESKTOP\KURSA_DARBS\GLSDK_0_5_2\OBJ\DEBUG\FREEGLUT\VC120.PDB
^C:\USERS\MATISS\DESKTOP\KURSA_DARBS\GLSDK_0_5_2\FREEGLUT\SRC\FREEGLUT_STROKE_MONO_ROMAN.C
C:\USERS\MATISS\DESKTOP\KURSA_DARBS\GLSDK_0_5_2\OBJ\DEBUG\FREEGLUT\VC120.PDB
^C:\USERS\MATISS\DESKTOP\KURSA_DARBS\GLSDK_0_5_2\FREEGLUT\SRC\FREEGLUT_STROKE_ROMAN.C
C:\USERS\MATISS\DESKTOP\KURSA_DARBS\GLSDK_0_5_2\OBJ\DEBUG\FREEGLUT\VC120.PDB
^C:\USERS\MATISS\DESKTOP\KURSA_DARBS\GLSDK_0_5_2\FREEGLUT\SRC\FREEGLUT_STRUCTURE.C
C:\USERS\MATISS\DESKTOP\KURSA_DARBS\GLSDK_0_5_2\OBJ\DEBUG\FREEGLUT\VC120.PDB
^C:\USERS\MATISS\DESKTOP\KURSA_DARBS\GLSDK_0_5_2\FREEGLUT\SRC\FREEGLUT_TEAPOT.C
C:\USERS\MATISS\DESKTOP\KURSA_DARBS\GLSDK_0_5_2\OBJ\DEBUG\FREEGLUT\VC120.PDB
^C:\USERS\MATISS\DESKTOP\KURSA_DARBS\GLSDK_0_5_2\FREEGLUT\SRC\FREEGLUT_VIDEORESIZE.C
C:\USERS\MATISS\DESKTOP\KURSA_DARBS\GLSDK_0_5_2\OBJ\DEBUG\FREEGLUT\VC120.PDB
^C:\USERS\MATISS\DESKTOP\KURSA_DARBS\GLSDK_0_5_2\FREEGLUT\SRC\FREEGLUT_WINDOW.C
C:\USERS\MATISS\DESKTOP\KURSA_DARBS\GLSDK_0_5_2\OBJ\DEBUG\FREEGLUT\VC120.PDB
^C:\USERS\MATISS\DESKTOP\KURSA_DARBS\GLSDK\FREEGLUT\SRC\FREEGLUT_CALLBACKS.C|C:\USERS\MATISS\DESKTOP\KURSA_DARBS\GLSDK\FREEGLUT\SRC\FREEGLUT_CURSOR.C|C:\USERS\MATISS\DESKTOP\KURSA_DARBS\GLSDK\FREEGLUT\SRC\FREEGLUT_DISPLAY.C|C:\USERS\MATISS\DESKTOP\KURSA_DARBS\GLSDK\FREEGLUT\SRC\FREEGLUT_EXT.C|C:\USERS\MATISS\DESKTOP\KURSA_DARBS\GLSDK\FREEGLUT\SRC\FREEGLUT_FONT.C|C:\USERS\MATISS\DESKTOP\KURSA_DARBS\GLSDK\FREEGLUT\SRC\FREEGLUT_FONT_DATA.C|C:\USERS\MATISS\DESKTOP\KURSA_DARBS\GLSDK\FREEGLUT\SRC\FREEGLUT_GAMEMODE.C|C:\USERS\MATISS\DESKTOP\KURSA_DARBS\GLSDK\FREEGLUT\SRC\FREEGLUT_GEOMETRY.C|C:\USERS\MATISS\DESKTOP\KURSA_DARBS\GLSDK\FREEGLUT\SRC\FREEGLUT_GLUTFONT_DEFINITIONS.C|C:\USERS\MATISS\DESKTOP\KURSA_DARBS\GLSDK\FREEGLUT\SRC\FREEGLUT_INIT.C|C:\USERS\MATISS\DESKTOP\KURSA_DARBS\GLSDK\FREEGLUT\SRC\FREEGLUT_INPUT_DEVICES.C|C:\USERS\MATISS\DESKTOP\KURSA_DARBS\GLSDK\FREEGLUT\SRC\FREEGLUT_JOYSTICK.C|C:\USERS\MATISS\DESKTOP\KURSA_DARBS\GLSDK\FREEGLUT\SRC\FREEGLUT_MAIN.C|C:\USERS\MATISS\DESKTOP\KURSA_DARBS\GLSDK\FREEGLUT\SRC\FREEGLUT_MENU.C|C:\USERS\MATISS\DESKTOP\KURSA_DARBS\GLSDK\FREEGLUT\SRC\FREEGLUT_MISC.C|C:\USERS\MATISS\DESKTOP\KURSA_DARBS\GLSDK\FREEGLUT\SRC\FREEGLUT_OVERLAY.C|C:\USERS\MATISS\DESKTOP\KURSA_DARBS\GLSDK\FREEGLUT\SRC\FREEGLUT_SPACEBALL.C|C:\USERS\MATISS\DESKTOP\KURSA_DARBS\GLSDK\FREEGLUT\SRC\FREEGLUT_STATE.C|C:\USERS\MATISS\DESKTOP\KURSA_DARBS\GLSDK\FREEGLUT\SRC\FREEGLUT_STROKE_MONO_ROMAN.C|C:\USERS\MATISS\DESKTOP\KURSA_DARBS\GLSDK\FREEGLUT\SRC\FREEGLUT_STROKE_ROMAN.C|C:\USERS\MATISS\DESKTOP\KURSA_DARBS\GLSDK\FREEGLUT\SRC\FREEGLUT_STRUCTURE.C|C:\USERS\MATISS\DESKTOP\KURSA_DARBS\GLSDK\FREEGLUT\SRC\FREEGLUT_TEAPOT.C|C:\USERS\MATISS\DESKTOP\KURSA_DARBS\GLSDK\FREEGLUT\SRC\FREEGLUT_VIDEORESIZE.C|C:\USERS\MATISS\DESKTOP\KURSA_DARBS\GLSDK\FREEGLUT\SRC\FREEGLUT_WINDOW.C
^C:\USERS\MATISS\DESKTOP\KURSA_DARBS\GLSDK\FREEGLUT\SRC\FREEGLUT_CALLBACKS.C
C:\USERS\MATISS\DESKTOP\KURSA_DARBS\GLSDK\OBJ\DEBUG\FREEGLUT\VC120.PDB
^C:\USERS\MATISS\DESKTOP\KURSA_DARBS\GLSDK\FREEGLUT\SRC\FREEGLUT_CURSOR.C
C:\USERS\MATISS\DESKTOP\KURSA_DARBS\GLSDK\OBJ\DEBUG\FREEGLUT\VC120.PDB
^C:\USERS\MATISS\DESKTOP\KURSA_DARBS\GLSDK\FREEGLUT\SRC\FREEGLUT_DISPLAY.C
C:\USERS\MATISS\DESKTOP\KURSA_DARBS\GLSDK\OBJ\DEBUG\FREEGLUT\VC120.PDB
^C:\USERS\MATISS\DESKTOP\KURSA_DARBS\GLSDK\FREEGLUT\SRC\FREEGLUT_EXT.C
C:\USERS\MATISS\DESKTOP\KURSA_DARBS\GLSDK\OBJ\DEBUG\FREEGLUT\VC120.PDB
^C:\USERS\MATISS\DESKTOP\KURSA_DARBS\GLSDK\FREEGLUT\SRC\FREEGLUT_FONT.C
C:\USERS\MATISS\DESKTOP\KURSA_DARBS\GLSDK\OBJ\DEBUG\FREEGLUT\VC120.PDB
^C:\USERS\MATISS\DESKTOP\KURSA_DARBS\GLSDK\FREEGLUT\SRC\FREEGLUT_FONT_DATA.C
C:\USERS\MATISS\DESKTOP\KURSA_DARBS\GLSDK\OBJ\DEBUG\FREEGLUT\VC120.PDB
^C:\USERS\MATISS\DESKTOP\KURSA_DARBS\GLSDK\FREEGLUT\SRC\FREEGLUT_GAMEMODE.C
C:\USERS\MATISS\DESKTOP\KURSA_DARBS\GLSDK\OBJ\DEBUG\FREEGLUT\VC120.PDB
^C:\USERS\MATISS\DESKTOP\KURSA_DARBS\GLSDK\FREEGLUT\SRC\FREEGLUT_GEOMETRY.C
C:\USERS\MATISS\DESKTOP\KURSA_DARBS\GLSDK\OBJ\DEBUG\FREEGLUT\VC120.PDB
^C:\USERS\MATISS\DESKTOP\KURSA_DARBS\GLSDK\FREEGLUT\SRC\FREEGLUT_GLUTFONT_DEFINITIONS.C
C:\USERS\MATISS\DESKTOP\KURSA_DARBS\GLSDK\OBJ\DEBUG\FREEGLUT\VC120.PDB
^C:\USERS\MATISS\DESKTOP\KURSA_DARBS\GLSDK\FREEGLUT\SRC\FREEGLUT_INIT.C
C:\USERS\MATISS\DESKTOP\KURSA_DARBS\GLSDK\OBJ\DEBUG\FREEGLUT\VC120.PDB
^C:\USERS\MATISS\DESKTOP\KURSA_DARBS\GLSDK\FREEGLUT\SRC\FREEGLUT_INPUT_DEVICES.C
C:\USERS\MATISS\DESKTOP\KURSA_DARBS\GLSDK\OBJ\DEBUG\FREEGLUT\VC120.PDB
^C:\USERS\MATISS\DESKTOP\KURSA_DARBS\GLSDK\FREEGLUT\SRC\FREEGLUT_JOYSTICK.C
C:\USERS\MATISS\DESKTOP\KURSA_DARBS\GLSDK\OBJ\DEBUG\FREEGLUT\VC120.PDB
^C:\USERS\MATISS\DESKTOP\KURSA_DARBS\GLSDK\FREEGLUT\SRC\FREEGLUT_MAIN.C
C:\USERS\MATISS\DESKTOP\KURSA_DARBS\GLSDK\OBJ\DEBUG\FREEGLUT\VC120.PDB
^C:\USERS\MATISS\DESKTOP\KURSA_DARBS\GLSDK\FREEGLUT\SRC\FREEGLUT_MENU.C
C:\USERS\MATISS\DESKTOP\KURSA_DARBS\GLSDK\OBJ\DEBUG\FREEGLUT\VC120.PDB
^C:\USERS\MATISS\DESKTOP\KURSA_DARBS\GLSDK\FREEGLUT\SRC\FREEGLUT_MISC.C
C:\USERS\MATISS\DESKTOP\KURSA_DARBS\GLSDK\OBJ\DEBUG\FREEGLUT\VC120.PDB
^C:\USERS\MATISS\DESKTOP\KURSA_DARBS\GLSDK\FREEGLUT\SRC\FREEGLUT_OVERLAY.C
C:\USERS\MATISS\DESKTOP\KURSA_DARBS\GLSDK\OBJ\DEBUG\FREEGLUT\VC120.PDB
^C:\USERS\MATISS\DESKTOP\KURSA_DARBS\GLSDK\FREEGLUT\SRC\FREEGLUT_SPACEBALL.C
C:\USERS\MATISS\DESKTOP\KURSA_DARBS\GLSDK\OBJ\DEBUG\FREEGLUT\VC120.PDB
^C:\USERS\MATISS\DESKTOP\KURSA_DARBS\GLSDK\FREEGLUT\SRC\FREEGLUT_STATE.C
C:\USERS\MATISS\DESKTOP\KURSA_DARBS\GLSDK\OBJ\DEBUG\FREEGLUT\VC120.PDB
^C:\USERS\MATISS\DESKTOP\KURSA_DARBS\GLSDK\FREEGLUT\SRC\FREEGLUT_STROKE_MONO_ROMAN.C
C:\USERS\MATISS\DESKTOP\KURSA_DARBS\GLSDK\OBJ\DEBUG\FREEGLUT\VC120.PDB
^C:\USERS\MATISS\DESKTOP\KURSA_DARBS\GLSDK\FREEGLUT\SRC\FREEGLUT_STROKE_ROMAN.C
C:\USERS\MATISS\DESKTOP\KURSA_DARBS\GLSDK\OBJ\DEBUG\FREEGLUT\VC120.PDB
^C:\USERS\MATISS\DESKTOP\KURSA_DARBS\GLSDK\FREEGLUT\SRC\FREEGLUT_STRUCTURE.C
C:\USERS\MATISS\DESKTOP\KURSA_DARBS\GLSDK\OBJ\DEBUG\FREEGLUT\VC120.PDB
^C:\USERS\MATISS\DESKTOP\KURSA_DARBS\GLSDK\FREEGLUT\SRC\FREEGLUT_TEAPOT.C
C:\USERS\MATISS\DESKTOP\KURSA_DARBS\GLSDK\OBJ\DEBUG\FREEGLUT\VC120.PDB
^C:\USERS\MATISS\DESKTOP\KURSA_DARBS\GLSDK\FREEGLUT\SRC\FREEGLUT_VIDEORESIZE.C
C:\USERS\MATISS\DESKTOP\KURSA_DARBS\GLSDK\OBJ\DEBUG\FREEGLUT\VC120.PDB
^C:\USERS\MATISS\DESKTOP\KURSA_DARBS\GLSDK\FREEGLUT\SRC\FREEGLUT_WINDOW.C
C:\USERS\MATISS\DESKTOP\KURSA_DARBS\GLSDK\OBJ\DEBUG\FREEGLUT\VC120.PDB
