^C:\USERS\MATISS\DESKTOP\KURSA_DARBS\GLSDK_0_5_2\EXAMPLES\SIMPLE_GLUT\OBJ\DEBUG\SIMPLE_GLUT.OBJ
C:\USERS\MATISS\DESKTOP\KURSA_DARBS\GLSDK_0_5_2\EXAMPLES\SIMPLE_GLUTD.ILK
C:\USERS\MATISS\DESKTOP\KURSA_DARBS\GLSDK_0_5_2\EXAMPLES\SIMPLE_GLUTD.EXE
C:\USERS\MATISS\DESKTOP\KURSA_DARBS\GLSDK_0_5_2\EXAMPLES\SIMPLE_GLUTD.PDB
