﻿Build started 2015.04.07. 19:36:41.
     1>Project "C:\Users\Matiss\Desktop\kursa_darbs\glsdk\freeglut.vcxproj" on node 3 (Build target(s)).
     1>ClCompile:
         C:\Program Files (x86)\Microsoft Visual Studio 12.0\VC\bin\CL.exe /c /Ifreeglut\include /ZI /nologo /W3 /WX- /Od /Oy- /D _CRT_SECURE_NO_WARNINGS /D _SCL_SECURE_NO_WARNINGS /D BOOST_ALL_NO_LIB /D FREEGLUT_STATIC /D _LIB /D FREEGLUT_LIB_PRAGMAS=0 /D WIN32 /D _DEBUG /D _MBCS /Gm /EHsc /RTC1 /MDd /GS /fp:precise /Zc:wchar_t /Zc:forScope /Fo"obj\Debug\freeglut\\" /Fd"obj\Debug\freeglut\vc120.pdb" /Gd /TC /analyze- /errorReport:prompt freeglut\src\freeglut_callbacks.c freeglut\src\freeglut_cursor.c freeglut\src\freeglut_display.c freeglut\src\freeglut_ext.c freeglut\src\freeglut_font.c freeglut\src\freeglut_font_data.c freeglut\src\freeglut_gamemode.c freeglut\src\freeglut_geometry.c freeglut\src\freeglut_glutfont_definitions.c freeglut\src\freeglut_init.c freeglut\src\freeglut_input_devices.c freeglut\src\freeglut_joystick.c freeglut\src\freeglut_main.c freeglut\src\freeglut_menu.c freeglut\src\freeglut_misc.c freeglut\src\freeglut_overlay.c freeglut\src\freeglut_spaceball.c freeglut\src\freeglut_state.c freeglut\src\freeglut_stroke_mono_roman.c freeglut\src\freeglut_stroke_roman.c freeglut\src\freeglut_structure.c freeglut\src\freeglut_teapot.c freeglut\src\freeglut_videoresize.c freeglut\src\freeglut_window.c
         freeglut_window.c
     1>c1 : fatal error C1083: Cannot open source file: 'freeglut\src\freeglut_window.c': No such file or directory
         freeglut_videoresize.c
     1>c1 : fatal error C1083: Cannot open source file: 'freeglut\src\freeglut_videoresize.c': No such file or directory
         freeglut_teapot.c
     1>c1 : fatal error C1083: Cannot open source file: 'freeglut\src\freeglut_teapot.c': No such file or directory
         freeglut_structure.c
     1>c1 : fatal error C1083: Cannot open source file: 'freeglut\src\freeglut_structure.c': No such file or directory
         freeglut_stroke_roman.c
     1>c1 : fatal error C1083: Cannot open source file: 'freeglut\src\freeglut_stroke_roman.c': No such file or directory
         freeglut_stroke_mono_roman.c
     1>c1 : fatal error C1083: Cannot open source file: 'freeglut\src\freeglut_stroke_mono_roman.c': No such file or directory
         freeglut_state.c
     1>c1 : fatal error C1083: Cannot open source file: 'freeglut\src\freeglut_state.c': No such file or directory
         freeglut_spaceball.c
     1>c1 : fatal error C1083: Cannot open source file: 'freeglut\src\freeglut_spaceball.c': No such file or directory
         freeglut_overlay.c
     1>c1 : fatal error C1083: Cannot open source file: 'freeglut\src\freeglut_overlay.c': No such file or directory
         freeglut_misc.c
     1>c1 : fatal error C1083: Cannot open source file: 'freeglut\src\freeglut_misc.c': No such file or directory
         freeglut_menu.c
     1>c1 : fatal error C1083: Cannot open source file: 'freeglut\src\freeglut_menu.c': No such file or directory
         freeglut_main.c
     1>c1 : fatal error C1083: Cannot open source file: 'freeglut\src\freeglut_main.c': No such file or directory
         freeglut_joystick.c
     1>c1 : fatal error C1083: Cannot open source file: 'freeglut\src\freeglut_joystick.c': No such file or directory
         freeglut_input_devices.c
     1>c1 : fatal error C1083: Cannot open source file: 'freeglut\src\freeglut_input_devices.c': No such file or directory
         freeglut_init.c
     1>c1 : fatal error C1083: Cannot open source file: 'freeglut\src\freeglut_init.c': No such file or directory
         freeglut_glutfont_definitions.c
     1>c1 : fatal error C1083: Cannot open source file: 'freeglut\src\freeglut_glutfont_definitions.c': No such file or directory
         freeglut_geometry.c
     1>c1 : fatal error C1083: Cannot open source file: 'freeglut\src\freeglut_geometry.c': No such file or directory
         freeglut_gamemode.c
     1>c1 : fatal error C1083: Cannot open source file: 'freeglut\src\freeglut_gamemode.c': No such file or directory
         freeglut_font_data.c
     1>c1 : fatal error C1083: Cannot open source file: 'freeglut\src\freeglut_font_data.c': No such file or directory
         freeglut_font.c
     1>c1 : fatal error C1083: Cannot open source file: 'freeglut\src\freeglut_font.c': No such file or directory
         Generating Code...
         Compiling...
         freeglut_ext.c
     1>c1 : fatal error C1083: Cannot open source file: 'freeglut\src\freeglut_ext.c': No such file or directory
         freeglut_display.c
     1>c1 : fatal error C1083: Cannot open source file: 'freeglut\src\freeglut_display.c': No such file or directory
         freeglut_cursor.c
     1>c1 : fatal error C1083: Cannot open source file: 'freeglut\src\freeglut_cursor.c': No such file or directory
         freeglut_callbacks.c
     1>c1 : fatal error C1083: Cannot open source file: 'freeglut\src\freeglut_callbacks.c': No such file or directory
         Generating Code...
     1>Done Building Project "C:\Users\Matiss\Desktop\kursa_darbs\glsdk\freeglut.vcxproj" (Build target(s)) -- FAILED.

Build FAILED.

Time Elapsed 00:00:00.33
