﻿Build started 2015.03.30. 13:52:34.
     1>Project "C:\Users\Matiss\Desktop\kursa_darbs\glsdk\freeglut\timer_static.vcxproj" on node 3 (Build target(s)).
     1>CustomBuild:
         Building Custom Rule C:/Users/Matiss/Desktop/kursa_darbs/glsdk/freeglut/CMakeLists.txt
         CMake does not need to re-run because C:\Users\Matiss\Desktop\kursa_darbs\glsdk\freeglut\CMakeFiles\generate.stamp is up-to-date.
       ClCompile:
         C:\Program Files (x86)\Microsoft Visual Studio 12.0\VC\bin\CL.exe /c /IC:\Users\Matiss\Desktop\kursa_darbs\glsdk\freeglut\src /IC:\Users\Matiss\Desktop\kursa_darbs\glsdk\freeglut\include /IC:\Users\Matiss\Desktop\kursa_darbs\glsdk\freeglut /Zi /nologo /W3 /WX- /Od /Ob0 /Oy- /D WIN32 /D _WINDOWS /D _DEBUG /D FREEGLUT_STATIC /D _CRT_SECURE_NO_WARNINGS /D _WIN32_WINNT=0x0500 /D WINVER=0x0500 /D HAVE_CONFIG_H /D "CMAKE_INTDIR=\"Debug\"" /D _MBCS /Gm- /RTC1 /MDd /GS /fp:precise /Zc:wchar_t /Zc:forScope /Fo"timer_static.dir\Debug\\" /Fd"timer_static.dir\Debug\vc120.pdb" /Gd /TC /analyze- /errorReport:prompt C:\Users\Matiss\Desktop\kursa_darbs\glsdk\freeglut\progs\demos\timer\timer.c
         timer.c
       Link:
         C:\Program Files (x86)\Microsoft Visual Studio 12.0\VC\bin\link.exe /ERRORREPORT:PROMPT /OUT:"C:\Users\Matiss\Desktop\kursa_darbs\glsdk\freeglut\bin\Debug\timer_staticd.exe" /INCREMENTAL /NOLOGO kernel32.lib user32.lib gdi32.lib winspool.lib shell32.lib ole32.lib oleaut32.lib uuid.lib comdlg32.lib advapi32.lib glu32.lib opengl32.lib winmm.lib lib\Debug\freeglut_staticd.lib opengl32.lib winmm.lib /MANIFEST /MANIFESTUAC:"level='asInvoker' uiAccess='false'" /manifest:embed /DEBUG /PDB:"C:/Users/Matiss/Desktop/kursa_darbs/glsdk/freeglut/bin/Debug/timer_staticd.pdb" /SUBSYSTEM:CONSOLE /TLBID:1 /DYNAMICBASE /NXCOMPAT /IMPLIB:"C:/Users/Matiss/Desktop/kursa_darbs/glsdk/freeglut/lib/Debug/timer_staticd.lib" /MACHINE:X86 /SAFESEH  /machine:X86 /debug timer_static.dir\Debug\timer.obj
         timer_static.vcxproj -> C:\Users\Matiss\Desktop\kursa_darbs\glsdk\freeglut\bin\Debug\timer_staticd.exe
     1>Done Building Project "C:\Users\Matiss\Desktop\kursa_darbs\glsdk\freeglut\timer_static.vcxproj" (Build target(s)).

Build succeeded.

Time Elapsed 00:00:00.38
